AnalisisEstadistico
…
ℹ Use `spec()` to retrieve the full column specification for this data.
ℹ Specify the column types or set `show_col_types = FALSE` to quiet this message.

curvas <- curvas %>%
  rename(
    curva_bccr_colones = `Curva Cero CupÃ³n BCCR (Colones)`,
    curva_fed_dolares  = `Curva Cero CupÃ³n FED (DÃ³lares)`
  )

curvas

# A tibble: 420 × 3
   vencimiento curva_bccr_colones curva_fed_dolares
         <dbl>              <dbl>             <dbl>
 1        0                  4.25              5.27
 2        0.09               4.29              5.09
 3        0.17               4.34              4.93
 4        0.25               4.38              4.79
 5        0.34               4.42              4.66
 6        0.42               4.46              4.55
 7        0.5                4.5               4.45
 8        0.59               4.54              4.37
 9        0.67               4.58              4.29
10        0.75               4.62              4.22
# ℹ 410 more rows
…
